{
  "project_info": {
    "project_number": "389551497867",
    "project_id": "messenger-app-67910",
    "storage_bucket": "messenger-app-67910.appspot.com"
  },
  "client": [
    {
      "client_info": {
        "mobilesdk_app_id": "1:389551497867:android:7d974d0156e163e53faa8e",
        "android_client_info": {
          "package_name": "com.example.messanger_app"
        }
      },
      "oauth_client": [],
      "api_key": [
        {
          "current_key": "AIzaSyASPNx5rG5iseYIUlyodHwdH5d46FdVzW8"
        }
      ],
      "services": {
        "appinvite_service": {
          "other_platform_oauth_client": []
        }
      }
    }
  ],
  "configuration_version": "1"
}